…
批量t检验

# 注释是黑体吗
library(tidyverse)
library(rstatix)
df = read_csv("F:/Learning_materials/R/正则/Demo_t.test.csv")
df
## # A tibble: 38 × 7
##    compoundID case_1 case_2 case_3 control_1 control_2 control_3
##    <chr>       <dbl>  <dbl>  <dbl>     <dbl>     <dbl>     <dbl>
##  1 com_001       485    154    268       350       432       425
##  2 com_002       208    372    219       457       324       392
##  3 com_003       219    125    345       473       480       403
##  4 com_004       289    356    116       489       376       500
##  5 com_005       248    456    279       457       426       436
##  6 com_006       323    142    462       451       354       452
##  7 com_007       259    148    374       397       346       383
##  8 com_008       428    262    226       436       499       308
##  9 com_009       327    494    244       316       368       401
## 10 com_010       480    343    495       383       471       387
## # ℹ 28 more rows
df= df %>% 
  pivot_longer(-1, names_pattern = "(.*)_", names_to = c(".value")) %>% 
  pivot_longer(-1, names_to = "trt", values_to = "val")
df
## # A tibble: 228 × 3
##    compoundID trt       val
##    <chr>      <chr>   <dbl>
##  1 com_001    case      485
##  2 com_001    control   350
##  3 com_001    case      154
##  4 com_001    control   432
##  5 com_001    case      268
##  6 com_001    control   425
##  7 com_002    case      208
##  8 com_002    control   457
##  9 com_002    case      372
## 10 com_002    control   324
## # ℹ 218 more rows
df %>% 
  group_by(compoundID) %>% 
  t_test(val ~ trt, detailed = TRUE)
## # A tibble: 38 × 16
##    compoundID estimate estimate1 estimate2 .y.   group1 group2     n1    n2
##  * <chr>         <dbl>     <dbl>     <dbl> <chr> <chr>  <chr>   <int> <int>
##  1 com_001     -100         302.      402. val   case   control     3     3
##  2 com_002     -125.        266.      391  val   case   control     3     3
##  3 com_003     -222.        230.      452  val   case   control     3     3
##  4 com_004     -201.        254.      455  val   case   control     3     3
##  5 com_005     -112         328.      440. val   case   control     3     3
##  6 com_006     -110         309       419  val   case   control     3     3
##  7 com_007     -115         260.      375. val   case   control     3     3
##  8 com_008     -109         305.      414. val   case   control     3     3
##  9 com_009       -6.67      355       362. val   case   control     3     3
## 10 com_010       25.7       439.      414. val   case   control     3     3
## # ℹ 28 more rows
## # ℹ 7 more variables: statistic <dbl>, p <dbl>, df <dbl>, conf.low <dbl>,
## #   conf.high <dbl>, method <chr>, alternative <chr>
…
查看函数帮助，可以看到，如果向量是第二个参数，那么它会被转化成数据框。所以…

按月份分组计算，同年同月的数据为一组

head(economics, 3)
## # A tibble: 3 × 6
##   date         pce    pop psavert uempmed unemploy
##   <date>     <dbl>  <dbl>   <dbl>   <dbl>    <dbl>
## 1 1967-07-01  507. 198712    12.6     4.5     2944
## 2 1967-08-01  510. 198911    12.6     4.7     2945
## 3 1967-09-01  516. 199113    11.9     4.6     2958
economics %>% 
  group_by(ym= tsibble::yearmonth(date)) %>% 
  summarise(pce= mean(pce))
## # A tibble: 574 × 2
##           ym   pce
##        <mth> <dbl>
##  1  1967 7月  507.
##  2  1967 8月  510.
##  3  1967 9月  516.
##  4 1967 10月  512.
##  5 1967 11月  517.
##  6 1967 12月  525.
##  7  1968 1月  531.
##  8  1968 2月  534.
##  9  1968 3月  544.
## 10  1968 4月  544 
## # ℹ 564 more rows
…
